<svg width="70" height="66" viewBox="0 0 70 66" fill="none" xmlns="http://www.w3.org/2000/svg">
<path d="M55.0841 26.9716V0.376465H14.9158V26.9716H0L35.0001 65.6234L70 26.9716H55.0841ZM9.22445 31.063H19.0073V4.46792H50.9926V31.063H60.7754L35.0001 59.5278L9.22445 31.063Z" fill="white"/>
<path d="M39.3585 29.5516C38.3861 28.8153 37.8137 28.518 36.7216 27.9722L35.2378 27.2026C34.9791 27.061 34.6593 26.8412 34.2553 26.5632L34.2162 26.5364C33.5039 25.9799 33.3639 25.4963 33.3639 24.8515C33.3639 23.8882 34.0979 23.1047 35.0002 23.1047C35.9516 23.1047 36.6605 23.3864 37.469 24.8265L37.8247 25.4602L40.9091 23.4618L40.631 22.9145C39.7788 21.2371 38.5613 20.1601 37.0068 19.7057V17.1873H33.4353V19.6851C31.1339 20.3935 29.5713 22.5225 29.5713 25.0449C29.5713 26.6995 30.1002 27.94 31.2436 28.9561C32.2675 29.838 33.0344 30.3071 34.6518 31.0422C37.085 32.201 37.9061 32.993 37.9061 34.1802C37.9061 34.9342 37.7073 35.5597 37.3238 36.0287C36.8213 36.6181 36.1533 36.8928 35.221 36.8928C33.4648 36.8928 32.4881 35.8633 31.737 33.221L31.4926 32.3612L28.2185 34.3427L28.3157 34.8145C28.8948 37.6234 30.8319 39.7025 33.4351 40.3629V42.838H37.0067V40.3419C38.1813 40.0528 39.1962 39.4457 40.0273 38.534C41.1362 37.3325 41.6985 35.8491 41.6985 34.1248L41.6978 34.0956C41.6109 32.0671 40.9101 30.7073 39.3585 29.5516Z" fill="white"/>
</svg>
